<!--
	Copyright (C) 2018 Minho Jo <whitestone8214@gmail.com>
	
	This program is free software: you can redistribute it and/or modify
	it under the terms of the GNU General Public License as published by
	the Free Software Foundation, either version 3 of the License, or
	(at your option) any later version.
	
	This program is distributed in the hope that it will be useful,
	but WITHOUT ANY WARRANTY; without even the implied warranty of
	MERCHANTABILITY or FITNESS FOR A PARTICULAR PURPOSE.  See the
	GNU General Public License for more details.
	
	You should have received a copy of the GNU General Public License
	along with this program.  If not, see <http://www.gnu.org/licenses/>.
-->


<svg width="100" height="100" xmlns="http://www.w3.org/2000/svg">
	<!--<path d="M 30,0 L 10,20 L 30,40 M 30,20 L 99,20 L 99,79 M 69,59 L 89,79 L 69,99 M 69,79 L 0,79 L 0,20" stroke="#000000" stroke-width="10px" fill="none" />-->
	<path d="M 40,10 L 57,27 L 40,44 M 59,89 L 42,72 L 59,55 M 40,27 L 10,27 L 10,72 L 22,72 M 59,72 L 89,72 L 89,27 L 77,27" stroke="#000000" stroke-width="10px" fill="none" />
</svg>
